client_dir/CPU.vcd
$date
	Fri Nov 19 00:06:28 2021
$end
$version
	Icarus Verilog
$end
$timescale
	1s
$end
$scope module TestBench $end
$var reg 1 ! Clk $end
$var reg 1 " Reset $end
$var reg 1 # Start $end
$var integer 32 $ counter [31:0] $end
$var integer 32 % i [31:0] $end
$var integer 32 & outfile [31:0] $end
$scope module CPU $end
$var wire 1 ' RegWrite $end
$var wire 1 ( Zero $end
$var wire 1 ! clk_i $end
$var wire 1 " rst_i $end
$var wire 1 # start_i $end
$var wire 32 ) pc_o [31:0] $end
$var wire 32 * pc_i [31:0] $end
$var wire 32 + instr_o [31:0] $end
$var wire 10 , funct_i [9:0] $end
$var wire 32 - ST_o [31:0] $end
$var wire 12 . ST_i [11:0] $end
$var wire 32 / RS2data [31:0] $end
$var wire 5 0 RS2addr_i [4:0] $end
$var wire 32 1 RS1data [31:0] $end
$var wire 5 2 RS1addr_i [4:0] $end
$var wire 32 3 RDdata [31:0] $end
$var wire 5 4 RDaddr_i [4:0] $end
$var wire 7 5 Op_i [6:0] $end
$var wire 32 6 MUX_o [31:0] $end
$var wire 1 7 ALUSrc $end
$var wire 2 8 ALUOp [1:0] $end
$var wire 3 9 ALUCrtl [2:0] $end
$scope module ALU $end
$var wire 1 ( Zero_o $end
$var wire 32 : data2_i [31:0] $end
$var wire 32 ; data1_i [31:0] $end
$var wire 3 < ALUCtrl_i [2:0] $end
$var reg 32 = data_o [31:0] $end
$upscope $end
$scope module ALU_Control $end
$var wire 10 > funct_i [9:0] $end
$var wire 2 ? ALUOp_i [1:0] $end
$var wire 3 @ ALUCtrl_o [2:0] $end
$upscope $end
$scope module Add_PC $end
$var wire 3 A data2_in [2:0] $end
$var wire 32 B data_o [31:0] $end
$var wire 32 C data1_in [31:0] $end
$upscope $end
$scope module Control $end
$var wire 1 7 ALUSrc_o $end
$var wire 7 D Op_i [6:0] $end
$var wire 1 ' RegWrite_o $end
$var wire 2 E ALUOp_o [1:0] $end
$upscope $end
$scope module Instruction_Memory $end
$var wire 32 F instr_o [31:0] $end
$var wire 32 G addr_i [31:0] $end
$upscope $end
$scope module MUX_ALUSrc $end
$var wire 1 7 select_i $end
$var wire 32 H data_o [31:0] $end
$var wire 32 I data2_i [31:0] $end
$var wire 32 J data1_i [31:0] $end
$upscope $end
$scope module PC $end
$var wire 1 ! clk_i $end
$var wire 32 K pc_i [31:0] $end
$var wire 1 " rst_i $end
$var wire 1 # start_i $end
$var reg 32 L pc_o [31:0] $end
$upscope $end
$scope module Registers $end
$var wire 5 M RDaddr_i [4:0] $end
$var wire 32 N RDdata_i [31:0] $end
$var wire 5 O RS1addr_i [4:0] $end
$var wire 32 P RS1data_o [31:0] $end
$var wire 5 Q RS2addr_i [4:0] $end
$var wire 32 R RS2data_o [31:0] $end
$var wire 1 ' RegWrite_i $end
$var wire 1 ! clk_i $end
$upscope $end
$scope module Sign_Extend $end
$var wire 12 S data_i [11:0] $end
$var wire 32 T data_o [31:0] $end
$upscope $end
$upscope $end
$upscope $end
$enddefinitions $end
#0
$dumpvars
b1111101 T
b1111101 S
b0 R
b11101 Q
b0 P
b0 O
b1111101 N
b111 M
b0 L
b100 K
b0 J
b1111101 I
b1111101 H
b0 G
b111110100000000001110010011 F
b0 E
b10011 D
b0 C
b100 B
b100 A
b110 @
b0 ?
b11000 >
b1111101 =
b110 <
b0 ;
b1111101 :
b110 9
b0 8
17
b1111101 6
b10011 5
b111 4
b1111101 3
b0 2
b0 1
b11101 0
b0 /
b1111101 .
b1111101 -
b11000 ,
b111110100000000001110010011 +
b100 *
b0 )
z(
1'
b11 &
b100000 %
b0 $
0#
0"
0!
$end
#12
1#
1"
#25
b11111111111111111111111110000011 3
b11111111111111111111111110000011 =
b11111111111111111111111110000011 N
b11111111111111111111111110000011 6
b11111111111111111111111110000011 :
b11111111111111111111111110000011 H
b11111111111111111111111110000011 -
b11111111111111111111111110000011 I
b11111111111111111111111110000011 T
b1111100000 ,
b1111100000 >
b111110000011 .
b111110000011 S
b101 4
b101 M
b11 0
b11 Q
b11111000001100000000001010010011 +
b11111000001100000000001010010011 F
b1000 *
b1000 B
b1000 K
b100 )
b100 C
b100 G
b100 L
b1 $
1!
#50
0!
#75
b100 9
b100 <
b100 @
07
b10000000101 -
b10000000101 I
b10000000101 T
b11111010 3
b11111010 =
b11111010 N
b1 8
b1 ?
b1 E
b100000000 ,
b100000000 >
b10000000101 .
b10000000101 S
b1000 4
b1000 M
b11111111111111111111111110000011 /
b11111111111111111111111110000011 J
b11111111111111111111111110000011 R
b101 0
b101 Q
b1111101 1
b1111101 ;
b1111101 P
b111 2
b111 O
b110011 5
b110011 D
b1000000010100111000010000110011 +
b1000000010100111000010000110011 F
b1100 *
b1100 B
b1100 K
b1000 )
b1000 C
b1000 G
b1000 L
b10 $
1!
#100
0!
#125
b10000000111 -
b10000000111 I
b10000000111 T
b1111101 6
b1111101 :
b1111101 H
b11111111111111111111111100000110 3
b11111111111111111111111100000110 =
b11111111111111111111111100000110 N
b10000000111 .
b10000000111 S
b1001 4
b1001 M
b1111101 /
b1111101 J
b1111101 R
b111 0
b111 Q
b11111111111111111111111110000011 1
b11111111111111111111111110000011 ;
b11111111111111111111111110000011 P
b101 2
b101 O
b1000000011100101000010010110011 +
b1000000011100101000010010110011 F
b10000 *
b10000 B
b10000 K
b1100 )
b1100 C
b1100 G
b1100 L
b11 $
1!
#150
0!
#175
b111 9
b111 <
b111 @
17
b10000000011 -
b10000000011 I
b10000000011 T
b10000000011 6
b10000000011 :
b10000000011 H
b11111 3
b11111 =
b11111 N
b0 8
b0 ?
b0 E
b100000101 ,
b100000101 >
b10000000011 .
b10000000011 S
b110 4
b110 M
b0 /
b0 J
b0 R
b11 0
b11 Q
b11111010 1
b11111010 ;
b11111010 P
b1000 2
b1000 O
b10011 5
b10011 D
b1000000001101000101001100010011 +
b1000000001101000101001100010011 F
b10100 *
b10100 B
b10100 K
b10000 )
b10000 C
b10000 G
b10000 L
b100 $
1!
#200
0!
#225
b110 9
b110 <
b110 @
b1010 6
b1010 :
b1010 H
b1010 -
b1010 I
b1010 T
b1010 3
b1010 =
b1010 N
b0 ,
b0 >
b1010 .
b1010 S
b111 4
b111 M
b1010 0
b1010 Q
b0 1
b0 ;
b0 P
b0 2
b0 O
b101000000000001110010011 +
b101000000000001110010011 F
b11000 *
b11000 B
b11000 K
b10100 )
b10100 C
b10100 G
b10100 L
b101 $
1!
#250
0!
#275
b101 9
b101 <
b101 @
07
b100111 -
b100111 I
b100111 T
b11111111111111111111101100011110 3
b11111111111111111111101100011110 =
b11111111111111111111101100011110 N
b1 8
b1 ?
b1 E
b1000 ,
b1000 >
b100111 .
b100111 S
b1010 /
b1010 J
b1010 R
b111 0
b111 Q
b11111111111111111111111110000011 1
b11111111111111111111111110000011 ;
b11111111111111111111111110000011 P
b101 2
b101 O
b110011 5
b110011 D
b10011100101000001110110011 +
b10011100101000001110110011 F
b11100 *
b11100 B
b11100 K
b11000 )
b11000 C
b11000 G
b11000 L
b110 $
1!
#300
0!
#325
b110 9
b110 <
b110 @
17
b10 -
b10 I
b10 T
b0 8
b0 ?
b0 E
b0 ,
b0 >
b10 .
b10 S
b1001 4
b1001 M
b10 0
b10 Q
b0 1
b0 ;
b0 P
b0 2
b0 O
b10011 5
b10011 D
b10 3
b10 =
b10 N
b1000000000010010010011 +
b1000000000010010010011 F
b10 6
b10 :
b10 H
b100000 *
b100000 B
b100000 K
b11100 )
b11100 C
b11100 G
b11100 L
b0 /
b0 J
b0 R
b111 $
1!
#350
0!
#375
b10 9
b10 <
b10 @
07
b1001 -
b1001 I
b1001 T
b11111111111111111110110001111000 3
b11111111111111111110110001111000 =
b11111111111111111110110001111000 N
b1 8
b1 ?
b1 E
b1 ,
b1 >
b1001 .
b1001 S
b111 4
b111 M
b10 /
b10 J
b10 R
b1001 0
b1001 Q
b11111111111111111111101100011110 1
b11111111111111111111101100011110 ;
b11111111111111111111101100011110 P
b111 2
b111 O
b110011 5
b110011 D
b100100111001001110110011 +
b100100111001001110110011 F
b100100 *
b100100 B
b100100 K
b100000 )
b100000 C
b100000 G
b100000 L
b1000 $
1!
#400
0!
#425
b111 9
b111 <
b111 @
17
b10000000101 -
b10000000101 I
b10000000101 T
b10000000101 6
b10000000101 :
b10000000101 H
b0 8
b0 ?
b0 E
b100000101 ,
b100000101 >
b10000000101 .
b10000000101 S
b11010 4
b11010 M
b11111111111111111111111110000011 /
b11111111111111111111111110000011 J
b11111111111111111111111110000011 R
b101 0
b101 Q
b10011 5
b10011 D
b1000000010100111101110100010011 +
b1000000010100111101110100010011 F
b11111111111111111111111101100011 3
b11111111111111111111111101100011 =
b11111111111111111111111101100011 N
b101000 *
b101000 B
b101000 K
b100100 )
b100100 C
b100100 G
b100100 L
b11111111111111111110110001111000 1
b11111111111111111110110001111000 ;
b11111111111111111110110001111000 P
b1001 $
1!
#450
0!
#475
b11 9
b11 <
b11 @
b11111111111111111111111101100011 6
b11111111111111111111111101100011 :
b11111111111111111111111101100011 H
07
b11010 -
b11010 I
b11010 T
b11111111111111111111111101100101 3
b11111111111111111111111101100101 =
b11111111111111111111111101100101 N
b1 8
b1 ?
b1 E
b0 ,
b0 >
b11010 .
b11010 S
b11011 4
b11011 M
b11111111111111111111111101100011 /
b11111111111111111111111101100011 J
b11111111111111111111111101100011 R
b11010 0
b11010 Q
b10 1
b10 ;
b10 P
b1001 2
b1001 O
b110011 5
b110011 D
b1101001001000110110110011 +
b1101001001000110110110011 F
b101100 *
b101100 B
b101100 K
b101000 )
b101000 C
b101000 G
b101000 L
b1010 $
1!
#500
0!
#525
b101 9
b101 <
b101 @
b111011 -
b111011 I
b111011 T
b11111111111111111111111101100101 6
b11111111111111111111111101100101 :
b11111111111111111111111101100101 H
b101111100001111 3
b101111100001111 =
b101111100001111 N
b1000 ,
b1000 >
b111011 .
b111011 S
b11100 4
b11100 M
b11111111111111111111111101100101 /
b11111111111111111111111101100101 J
b11111111111111111111111101100101 R
b11011 0
b11011 Q
b11111111111111111111111101100011 1
b11111111111111111111111101100011 ;
b11111111111111111111111101100011 P
b11010 2
b11010 O
b11101111010000111000110011 +
b11101111010000111000110011 F
b110000 *
b110000 B
b110000 K
b101100 )
b101100 C
b101100 G
b101100 L
b1011 $
1!
#550
0!
#575
b11 9
b11 <
b11 @
b111 -
b111 I
b111 T
b11111111111111111110110001111000 6
b11111111111111111110110001111000 :
b11111111111111111110110001111000 H
b100101110000111 3
b100101110000111 =
b100101110000111 N
b0 ,
b0 >
b111 .
b111 S
b11111111111111111110110001111000 /
b11111111111111111110110001111000 J
b11111111111111111110110001111000 R
b111 0
b111 Q
b101111100001111 1
b101111100001111 ;
b101111100001111 P
b11100 2
b11100 O
b11111100000111000110011 +
b11111100000111000110011 F
b110100 *
b110100 B
b110100 K
b110000 )
b110000 C
b110000 G
b110000 L
b1100 $
1!
#600
0!
#625
b110 9
b110 <
b110 @
17
b11010011110 -
b11010011110 I
b11010011110 T
b11010011110 6
b11010011110 :
b11010011110 H
b0 8
b0 ?
b0 E
b110100000 ,
b110100000 >
b11010011110 .
b11010011110 S
b11101 4
b11101 M
b0 /
b0 J
b0 R
b11110 0
b11110 Q
b0 2
b0 O
b10011 5
b10011 D
b1101001111000000000111010010011 +
b1101001111000000000111010010011 F
b11010011110 3
b11010011110 =
b11010011110 N
b111000 *
b111000 B
b111000 K
b110100 )
b110100 C
b110100 G
b110100 L
b0 1
b0 ;
b0 P
b1101 $
1!
#650
0!
#675
b0 9
b0 <
b0 @
b100101110000111 6
b100101110000111 :
b100101110000111 H
07
b11100 -
b11100 I
b11100 T
b1010000110 3
b1010000110 =
b1010000110 N
b1 8
b1 ?
b1 E
b111 ,
b111 >
b11100 .
b11100 S
b110 4
b110 M
b100101110000111 /
b100101110000111 J
b100101110000111 R
b11100 0
b11100 Q
b11010011110 1
b11010011110 ;
b11010011110 P
b11101 2
b11101 O
b110011 5
b110011 D
b1110011101111001100110011 +
b1110011101111001100110011 F
b111100 *
b111100 B
b111100 K
b111000 )
b111000 C
b111000 G
b111000 L
b1110 $
1!
#700
0!
#725
b100110100011001 3
b100110100011001 =
b100110100011001 N
b1 9
b1 <
b1 @
b100 ,
b100 >
b111 4
b111 M
b1110011101100001110110011 +
b1110011101100001110110011 F
b1000000 *
b1000000 B
b1000000 K
b111100 )
b111100 C
b111100 G
b111100 L
b1111 $
1!
#750
0!
#775
b101 9
b101 <
b101 @
b100101 -
b100101 I
b100101 T
b11111111111111111111111110000011 6
b11111111111111111111111110000011 :
b11111111111111111111111110000011 H
b11111111111111111111111100000110 3
b11111111111111111111111100000110 =
b11111111111111111111111100000110 N
b1000 ,
b1000 >
b100101 .
b100101 S
b1000 4
b1000 M
b11111111111111111111111110000011 /
b11111111111111111111111110000011 J
b11111111111111111111111110000011 R
b101 0
b101 Q
b10 1
b10 ;
b10 P
b1001 2
b1001 O
b10010101001000010000110011 +
b10010101001000010000110011 F
b1000100 *
b1000100 B
b1000100 K
b1000000 )
b1000000 C
b1000000 G
b1000000 L
b10000 $
1!
#800
0!
#825
b100000 -
b100000 I
b100000 T
b0 6
b0 :
b0 H
b0 3
b0 =
b0 N
b100000 .
b100000 S
b0 /
b0 J
b0 R
b0 0
b0 Q
b11111111111111111111111110000011 1
b11111111111111111111111110000011 ;
b11111111111111111111111110000011 P
b101 2
b101 O
b10000000101000010000110011 +
b10000000101000010000110011 F
b1001000 *
b1001000 B
b1001000 K
b1000100 )
b1000100 C
b1000100 G
b1000100 L
b10001 $
1!
#850
0!
#875
b110 9
b110 <
b110 @
17
b0 -
b0 I
b0 T
b0 8
b0 ?
b0 E
b0 ,
b0 >
b0 .
b0 S
b0 4
b0 M
b0 1
b0 ;
b0 P
b0 2
b0 O
b0 5
b0 D
b0 +
b0 F
b1001100 *
b1001100 B
b1001100 K
b1001000 )
b1001000 C
b1001000 G
b1001000 L
b10010 $
1!
#900
0!
#925
b1010000 *
b1010000 B
b1010000 K
b1001100 )
b1001100 C
b1001100 G
b1001100 L
b10011 $
1!
#950
0!
#975
b1010100 *
b1010100 B
b1010100 K
b1010000 )
b1010000 C
b1010000 G
b1010000 L
b10100 $
1!
#1000
0!
#1025
b1011000 *
b1011000 B
b1011000 K
b1010100 )
b1010100 C
b1010100 G
b1010100 L
b10101 $
1!
#1050
0!
#1075
b1011100 *
b1011100 B
b1011100 K
b1011000 )
b1011000 C
b1011000 G
b1011000 L
b10110 $
1!
#1100
0!
#1125
b1100000 *
b1100000 B
b1100000 K
b1011100 )
b1011100 C
b1011100 G
b1011100 L
b10111 $
1!
#1150
0!
#1175
b1100100 *
b1100100 B
b1100100 K
b1100000 )
b1100000 C
b1100000 G
b1100000 L
b11000 $
1!
#1200
0!
#1225
b1101000 *
b1101000 B
b1101000 K
b1100100 )
b1100100 C
b1100100 G
b1100100 L
b11001 $
1!
#1250
0!
#1275
b1101100 *
b1101100 B
b1101100 K
b1101000 )
b1101000 C
b1101000 G
b1101000 L
b11010 $
1!
#1300
0!
#1325
b1110000 *
b1110000 B
b1110000 K
b1101100 )
b1101100 C
b1101100 G
b1101100 L
b11011 $
1!
#1350
0!
#1375
b1110100 *
b1110100 B
b1110100 K
b1110000 )
b1110000 C
b1110000 G
b1110000 L
b11100 $
1!
#1400
0!
#1425
b1111000 *
b1111000 B
b1111000 K
b1110100 )
b1110100 C
b1110100 G
b1110100 L
b11101 $
1!
#1450
0!
#1475
b1111100 *
b1111100 B
b1111100 K
b1111000 )
b1111000 C
b1111000 G
b1111000 L
b11110 $
1!
#1500
0!
#1525
b10000000 *
b10000000 B
b10000000 K
b1111100 )
b1111100 C
b1111100 G
b1111100 L
1!
